Exp7_ALU8bit/testbench.vcd
$date
  Wed Feb  1 11:01:05 2017
$end
$version
  GHDL v0
$end
$timescale
  1 fs
$end
$var reg 18 ! input_vector[17:0] $end
$var reg 8 " output_vector[7:0] $end
$scope module dut_instance $end
$var reg 18 # input_vector[17:0] $end
$var reg 8 $ output_vector[7:0] $end
$scope module add_instance $end
$var reg 1 % x7 $end
$var reg 1 & x6 $end
$var reg 1 ' x5 $end
$var reg 1 ( x4 $end
$var reg 1 ) x3 $end
$var reg 1 * x2 $end
$var reg 1 + x1 $end
$var reg 1 , x0 $end
$var reg 1 - y7 $end
$var reg 1 . y6 $end
$var reg 1 / y5 $end
$var reg 1 0 y4 $end
$var reg 1 1 y3 $end
$var reg 1 2 y2 $end
$var reg 1 3 y1 $end
$var reg 1 4 y0 $end
$var reg 1 5 z7 $end
$var reg 1 6 z6 $end
$var reg 1 7 z5 $end
$var reg 1 8 z4 $end
$var reg 1 9 z3 $end
$var reg 1 : z2 $end
$var reg 1 ; z1 $end
$var reg 1 < z0 $end
$var reg 1 = s1 $end
$var reg 1 > s0 $end
$var reg 1 ? m3 $end
$var reg 1 @ m2 $end
$var reg 1 A m1 $end
$var reg 1 B m0 $end
$var reg 1 C yn7 $end
$var reg 1 D yn6 $end
$var reg 1 E yn5 $end
$var reg 1 F yn4 $end
$var reg 1 G yn3 $end
$var reg 1 H yn2 $end
$var reg 1 I yn1 $end
$var reg 1 J yn0 $end
$var reg 1 K y_a7 $end
$var reg 1 L y_a6 $end
$var reg 1 M y_a5 $end
$var reg 1 N y_a4 $end
$var reg 1 O y_a3 $end
$var reg 1 P y_a2 $end
$var reg 1 Q y_a1 $end
$var reg 1 R y_a0 $end
$var reg 1 S z_a7 $end
$var reg 1 T z_a6 $end
$var reg 1 U z_a5 $end
$var reg 1 V z_a4 $end
$var reg 1 W z_a3 $end
$var reg 1 X z_a2 $end
$var reg 1 Y z_a1 $end
$var reg 1 Z z_a0 $end
$var reg 1 [ z_lrs7 $end
$var reg 1 \ z_lrs6 $end
$var reg 1 ] z_lrs5 $end
$var reg 1 ^ z_lrs4 $end
$var reg 1 _ z_lrs3 $end
$var reg 1 ` z_lrs2 $end
$var reg 1 a z_lrs1 $end
$var reg 1 b z_lrs0 $end
$var reg 1 c z_lls7 $end
$var reg 1 d z_lls6 $end
$var reg 1 e z_lls5 $end
$var reg 1 f z_lls4 $end
$var reg 1 g z_lls3 $end
$var reg 1 h z_lls2 $end
$var reg 1 i z_lls1 $end
$var reg 1 j z_lls0 $end
$var reg 1 k ovf $end
$scope module xi0 $end
$var reg 1 l s1 $end
$var reg 1 m s0 $end
$var reg 1 n y3 $end
$var reg 1 o y2 $end
$var reg 1 p y1 $end
$var reg 1 q y0 $end
$upscope $end
$scope module xi1 $end
$var reg 1 r y7 $end
$var reg 1 s y6 $end
$var reg 1 t y5 $end
$var reg 1 u y4 $end
$var reg 1 v y3 $end
$var reg 1 w y2 $end
$var reg 1 x y1 $end
$var reg 1 y y0 $end
$var reg 1 z z7 $end
$var reg 1 { z6 $end
$var reg 1 | z5 $end
$var reg 1 } z4 $end
$var reg 1 !" z3 $end
$var reg 1 "" z2 $end
$var reg 1 #" z1 $end
$var reg 1 $" z0 $end
$upscope $end
$scope module xi2 $end
$var reg 1 %" x7 $end
$var reg 1 &" x6 $end
$var reg 1 '" x5 $end
$var reg 1 (" x4 $end
$var reg 1 )" x3 $end
$var reg 1 *" x2 $end
$var reg 1 +" x1 $end
$var reg 1 ," x0 $end
$var reg 1 -" y7 $end
$var reg 1 ." y6 $end
$var reg 1 /" y5 $end
$var reg 1 0" y4 $end
$var reg 1 1" y3 $end
$var reg 1 2" y2 $end
$var reg 1 3" y1 $end
$var reg 1 4" y0 $end
$var reg 1 5" z7 $end
$var reg 1 6" z6 $end
$var reg 1 7" z5 $end
$var reg 1 8" z4 $end
$var reg 1 9" z3 $end
$var reg 1 :" z2 $end
$var reg 1 ;" z1 $end
$var reg 1 <" z0 $end
$var reg 1 =" c_in0 $end
$var reg 1 >" c_out7 $end
$var reg 1 ?" c_out6 $end
$var reg 1 @" c_out5 $end
$var reg 1 A" c_out4 $end
$var reg 1 B" c_out3 $end
$var reg 1 C" c_out2 $end
$var reg 1 D" c_out1 $end
$var reg 1 E" c_out0 $end
$scope module xi0 $end
$var reg 1 F" c_in $end
$var reg 1 G" a1 $end
$var reg 1 H" a0 $end
$var reg 1 I" c_out $end
$var reg 1 J" s $end
$var reg 1 K" c_ha1 $end
$var reg 1 L" c_ha0 $end
$var reg 1 M" s_ha0 $end
$scope module x0 $end
$var reg 1 N" a1 $end
$var reg 1 O" a0 $end
$var reg 1 P" c $end
$var reg 1 Q" s $end
$scope module x0 $end
$var reg 1 R" a1 $end
$var reg 1 S" a0 $end
$var reg 1 T" y $end
$upscope $end
$upscope $end
$scope module x1 $end
$var reg 1 U" a1 $end
$var reg 1 V" a0 $end
$var reg 1 W" c $end
$var reg 1 X" s $end
$scope module x0 $end
$var reg 1 Y" a1 $end
$var reg 1 Z" a0 $end
$var reg 1 [" y $end
$upscope $end
$upscope $end
$upscope $end
$scope module xi1 $end
$var reg 1 \" c_in $end
$var reg 1 ]" a1 $end
$var reg 1 ^" a0 $end
$var reg 1 _" c_out $end
$var reg 1 `" s $end
$var reg 1 a" c_ha1 $end
$var reg 1 b" c_ha0 $end
$var reg 1 c" s_ha0 $end
$scope module x0 $end
$var reg 1 d" a1 $end
$var reg 1 e" a0 $end
$var reg 1 f" c $end
$var reg 1 g" s $end
$scope module x0 $end
$var reg 1 h" a1 $end
$var reg 1 i" a0 $end
$var reg 1 j" y $end
$upscope $end
$upscope $end
$scope module x1 $end
$var reg 1 k" a1 $end
$var reg 1 l" a0 $end
$var reg 1 m" c $end
$var reg 1 n" s $end
$scope module x0 $end
$var reg 1 o" a1 $end
$var reg 1 p" a0 $end
$var reg 1 q" y $end
$upscope $end
$upscope $end
$upscope $end
$scope module xi2 $end
$var reg 1 r" c_in $end
$var reg 1 s" a1 $end
$var reg 1 t" a0 $end
$var reg 1 u" c_out $end
$var reg 1 v" s $end
$var reg 1 w" c_ha1 $end
$var reg 1 x" c_ha0 $end
$var reg 1 y" s_ha0 $end
$scope module x0 $end
$var reg 1 z" a1 $end
$var reg 1 {" a0 $end
$var reg 1 |" c $end
$var reg 1 }" s $end
$scope module x0 $end
$var reg 1 !# a1 $end
$var reg 1 "# a0 $end
$var reg 1 ## y $end
$upscope $end
$upscope $end
$scope module x1 $end
$var reg 1 $# a1 $end
$var reg 1 %# a0 $end
$var reg 1 &# c $end
$var reg 1 '# s $end
$scope module x0 $end
$var reg 1 (# a1 $end
$var reg 1 )# a0 $end
$var reg 1 *# y $end
$upscope $end
$upscope $end
$upscope $end
$scope module xi3 $end
$var reg 1 +# c_in $end
$var reg 1 ,# a1 $end
$var reg 1 -# a0 $end
$var reg 1 .# c_out $end
$var reg 1 /# s $end
$var reg 1 0# c_ha1 $end
$var reg 1 1# c_ha0 $end
$var reg 1 2# s_ha0 $end
$scope module x0 $end
$var reg 1 3# a1 $end
$var reg 1 4# a0 $end
$var reg 1 5# c $end
$var reg 1 6# s $end
$scope module x0 $end
$var reg 1 7# a1 $end
$var reg 1 8# a0 $end
$var reg 1 9# y $end
$upscope $end
$upscope $end
$scope module x1 $end
$var reg 1 :# a1 $end
$var reg 1 ;# a0 $end
$var reg 1 <# c $end
$var reg 1 =# s $end
$scope module x0 $end
$var reg 1 ># a1 $end
$var reg 1 ?# a0 $end
$var reg 1 @# y $end
$upscope $end
$upscope $end
$upscope $end
$scope module xi4 $end
$var reg 1 A# c_in $end
$var reg 1 B# a1 $end
$var reg 1 C# a0 $end
$var reg 1 D# c_out $end
$var reg 1 E# s $end
$var reg 1 F# c_ha1 $end
$var reg 1 G# c_ha0 $end
$var reg 1 H# s_ha0 $end
$scope module x0 $end
$var reg 1 I# a1 $end
$var reg 1 J# a0 $end
$var reg 1 K# c $end
$var reg 1 L# s $end
$scope module x0 $end
$var reg 1 M# a1 $end
$var reg 1 N# a0 $end
$var reg 1 O# y $end
$upscope $end
$upscope $end
$scope module x1 $end
$var reg 1 P# a1 $end
$var reg 1 Q# a0 $end
$var reg 1 R# c $end
$var reg 1 S# s $end
$scope module x0 $end
$var reg 1 T# a1 $end
$var reg 1 U# a0 $end
$var reg 1 V# y $end
$upscope $end
$upscope $end
$upscope $end
$scope module xi5 $end
$var reg 1 W# c_in $end
$var reg 1 X# a1 $end
$var reg 1 Y# a0 $end
$var reg 1 Z# c_out $end
$var reg 1 [# s $end
$var reg 1 \# c_ha1 $end
$var reg 1 ]# c_ha0 $end
$var reg 1 ^# s_ha0 $end
$scope module x0 $end
$var reg 1 _# a1 $end
$var reg 1 `# a0 $end
$var reg 1 a# c $end
$var reg 1 b# s $end
$scope module x0 $end
$var reg 1 c# a1 $end
$var reg 1 d# a0 $end
$var reg 1 e# y $end
$upscope $end
$upscope $end
$scope module x1 $end
$var reg 1 f# a1 $end
$var reg 1 g# a0 $end
$var reg 1 h# c $end
$var reg 1 i# s $end
$scope module x0 $end
$var reg 1 j# a1 $end
$var reg 1 k# a0 $end
$var reg 1 l# y $end
$upscope $end
$upscope $end
$upscope $end
$scope module xi6 $end
$var reg 1 m# c_in $end
$var reg 1 n# a1 $end
$var reg 1 o# a0 $end
$var reg 1 p# c_out $end
$var reg 1 q# s $end
$var reg 1 r# c_ha1 $end
$var reg 1 s# c_ha0 $end
$var reg 1 t# s_ha0 $end
$scope module x0 $end
$var reg 1 u# a1 $end
$var reg 1 v# a0 $end
$var reg 1 w# c $end
$var reg 1 x# s $end
$scope module x0 $end
$var reg 1 y# a1 $end
$var reg 1 z# a0 $end
$var reg 1 {# y $end
$upscope $end
$upscope $end
$scope module x1 $end
$var reg 1 |# a1 $end
$var reg 1 }# a0 $end
$var reg 1 !$ c $end
$var reg 1 "$ s $end
$scope module x0 $end
$var reg 1 #$ a1 $end
$var reg 1 $$ a0 $end
$var reg 1 %$ y $end
$upscope $end
$upscope $end
$upscope $end
$scope module xi7 $end
$var reg 1 &$ c_in $end
$var reg 1 '$ a1 $end
$var reg 1 ($ a0 $end
$var reg 1 )$ c_out $end
$var reg 1 *$ s $end
$var reg 1 +$ c_ha1 $end
$var reg 1 ,$ c_ha0 $end
$var reg 1 -$ s_ha0 $end
$scope module x0 $end
$var reg 1 .$ a1 $end
$var reg 1 /$ a0 $end
$var reg 1 0$ c $end
$var reg 1 1$ s $end
$scope module x0 $end
$var reg 1 2$ a1 $end
$var reg 1 3$ a0 $end
$var reg 1 4$ y $end
$upscope $end
$upscope $end
$scope module x1 $end
$var reg 1 5$ a1 $end
$var reg 1 6$ a0 $end
$var reg 1 7$ c $end
$var reg 1 8$ s $end
$scope module x0 $end
$var reg 1 9$ a1 $end
$var reg 1 :$ a0 $end
$var reg 1 ;$ y $end
$upscope $end
$upscope $end
$upscope $end
$upscope $end
$scope module xi3 $end
$var reg 1 <$ x7 $end
$var reg 1 =$ x6 $end
$var reg 1 >$ x5 $end
$var reg 1 ?$ x4 $end
$var reg 1 @$ x3 $end
$var reg 1 A$ x2 $end
$var reg 1 B$ x1 $end
$var reg 1 C$ x0 $end
$var reg 1 D$ y7 $end
$var reg 1 E$ y6 $end
$var reg 1 F$ y5 $end
$var reg 1 G$ y4 $end
$var reg 1 H$ y3 $end
$var reg 1 I$ y2 $end
$var reg 1 J$ y1 $end
$var reg 1 K$ y0 $end
$var reg 1 L$ z7 $end
$var reg 1 M$ z6 $end
$var reg 1 N$ z5 $end
$var reg 1 O$ z4 $end
$var reg 1 P$ z3 $end
$var reg 1 Q$ z2 $end
$var reg 1 R$ z1 $end
$var reg 1 S$ z0 $end
$var reg 1 T$ s8 $end
$var reg 1 U$ s7 $end
$var reg 1 V$ s6 $end
$var reg 1 W$ s5 $end
$var reg 1 X$ s4 $end
$var reg 1 Y$ s3 $end
$var reg 1 Z$ s2 $end
$var reg 1 [$ s1 $end
$var reg 1 \$ s0 $end
$scope module xi0 $end
$var reg 1 ]$ s2 $end
$var reg 1 ^$ s1 $end
$var reg 1 _$ s0 $end
$var reg 1 `$ y7 $end
$var reg 1 a$ y6 $end
$var reg 1 b$ y5 $end
$var reg 1 c$ y4 $end
$var reg 1 d$ y3 $end
$var reg 1 e$ y2 $end
$var reg 1 f$ y1 $end
$var reg 1 g$ y0 $end
$upscope $end
$upscope $end
$scope module xi4 $end
$var reg 1 h$ x7 $end
$var reg 1 i$ x6 $end
$var reg 1 j$ x5 $end
$var reg 1 k$ x4 $end
$var reg 1 l$ x3 $end
$var reg 1 m$ x2 $end
$var reg 1 n$ x1 $end
$var reg 1 o$ x0 $end
$var reg 1 p$ y7 $end
$var reg 1 q$ y6 $end
$var reg 1 r$ y5 $end
$var reg 1 s$ y4 $end
$var reg 1 t$ y3 $end
$var reg 1 u$ y2 $end
$var reg 1 v$ y1 $end
$var reg 1 w$ y0 $end
$var reg 1 x$ z7 $end
$var reg 1 y$ z6 $end
$var reg 1 z$ z5 $end
$var reg 1 {$ z4 $end
$var reg 1 |$ z3 $end
$var reg 1 }$ z2 $end
$var reg 1 !% z1 $end
$var reg 1 "% z0 $end
$var reg 1 #% s8 $end
$var reg 1 $% s7 $end
$var reg 1 %% s6 $end
$var reg 1 &% s5 $end
$var reg 1 '% s4 $end
$var reg 1 (% s3 $end
$var reg 1 )% s2 $end
$var reg 1 *% s1 $end
$var reg 1 +% s0 $end
$scope module xi0 $end
$var reg 1 ,% s2 $end
$var reg 1 -% s1 $end
$var reg 1 .% s0 $end
$var reg 1 /% y7 $end
$var reg 1 0% y6 $end
$var reg 1 1% y5 $end
$var reg 1 2% y4 $end
$var reg 1 3% y3 $end
$var reg 1 4% y2 $end
$var reg 1 5% y1 $end
$var reg 1 6% y0 $end
$upscope $end
$upscope $end
$upscope $end
$upscope $end
$enddefinitions $end
#0
b000000001010010101 !
b10010111 "
b000000001010010101 #
b10010111 $
1%
0&
0'
1(
0)
1*
0+
1,
0-
0.
0/
00
01
02
13
04
15
06
07
18
09
1:
1;
1<
0=
0>
0?
0@
0A
1B
1C
1D
1E
1F
1G
1H
0I
1J
0K
0L
0M
0N
0O
0P
1Q
0R
1S
0T
0U
1V
0W
1X
1Y
1Z
0[
0\
1]
0^
0_
1`
0a
1b
0c
1d
0e
1f
0g
1h
0i
0j
0k
0l
0m
0n
0o
0p
1q
0r
0s
0t
0u
0v
0w
1x
0y
1z
1{
1|
1}
1!"
1""
0#"
1$"
1%"
0&"
0'"
1("
0)"
1*"
0+"
1,"
0-"
0."
0/"
00"
01"
02"
13"
04"
15"
06"
07"
18"
09"
1:"
1;"
1<"
0="
0>"
0?"
0@"
0A"
0B"
0C"
0D"
0E"
0F"
0G"
1H"
0I"
1J"
0K"
0L"
1M"
0N"
1O"
0P"
1Q"
0R"
1S"
1T"
0U"
1V"
0W"
1X"
0Y"
1Z"
1["
0\"
1]"
0^"
0_"
1`"
0a"
0b"
1c"
1d"
0e"
0f"
1g"
1h"
0i"
1j"
0k"
1l"
0m"
1n"
0o"
1p"
1q"
0r"
0s"
1t"
0u"
1v"
0w"
0x"
1y"
0z"
1{"
0|"
1}"
0!#
1"#
1##
0$#
1%#
0&#
1'#
0(#
1)#
1*#
0+#
0,#
0-#
0.#
0/#
00#
01#
02#
03#
04#
05#
06#
07#
08#
09#
0:#
0;#
0<#
0=#
0>#
0?#
0@#
0A#
0B#
1C#
0D#
1E#
0F#
0G#
1H#
0I#
1J#
0K#
1L#
0M#
1N#
1O#
0P#
1Q#
0R#
1S#
0T#
1U#
1V#
0W#
0X#
0Y#
0Z#
0[#
0\#
0]#
0^#
0_#
0`#
0a#
0b#
0c#
0d#
0e#
0f#
0g#
0h#
0i#
0j#
0k#
0l#
0m#
0n#
0o#
0p#
0q#
0r#
0s#
0t#
0u#
0v#
0w#
0x#
0y#
0z#
0{#
0|#
0}#
0!$
0"$
0#$
0$$
0%$
0&$
0'$
1($
0)$
1*$
0+$
0,$
1-$
0.$
1/$
00$
11$
02$
13$
14$
05$
16$
07$
18$
09$
1:$
1;$
1<$
0=$
0>$
1?$
0@$
1A$
0B$
1C$
0D$
0E$
0F$
0G$
0H$
0I$
1J$
0K$
0L$
0M$
1N$
0O$
0P$
1Q$
0R$
1S$
0T$
0U$
0V$
0W$
0X$
0Y$
1Z$
0[$
0\$
0]$
1^$
0_$
0`$
0a$
0b$
0c$
0d$
1e$
0f$
0g$
1h$
0i$
0j$
1k$
0l$
1m$
0n$
1o$
0p$
0q$
0r$
0s$
0t$
0u$
1v$
0w$
0x$
1y$
0z$
1{$
0|$
1}$
0!%
0"%
0#%
0$%
0%%
0&%
0'%
0(%
1)%
0*%
0+%
0,%
1-%
0.%
0/%
00%
01%
02%
03%
14%
05%
06%
#1000000
#5000000
b001111111010010101 !
b10010011 "
b001111111010010101 #
b10010011 $
1-
1.
1/
10
11
12
15
06
07
18
09
0:
0C
0D
0E
0F
0G
0H
1K
1L
1M
1N
1O
1P
1S
0T
0U
1V
0W
0X
0]
0`
0b
0d
0f
0h
1k
1r
1s
1t
1u
1v
1w
0z
0{
0|
0}
0!"
0""
1-"
1."
1/"
10"
11"
12"
15"
06"
07"
18"
09"
0:"
1>"
1?"
1@"
1A"
1B"
1C"
1s"
1u"
0v"
1x"
0y"
1z"
1|"
0}"
1!#
0##
0%#
0'#
0)#
0*#
1+#
1,#
1.#
0/#
10#
12#
13#
16#
17#
19#
1:#
1;#
1<#
0=#
1>#
1?#
0@#
1A#
1B#
1D#
1E#
1G#
0H#
1I#
1K#
0L#
1M#
0O#
1P#
0Q#
1S#
1T#
0U#
1V#
1W#
1X#
1Z#
0[#
1\#
1^#
1_#
1b#
1c#
1e#
1f#
1g#
1h#
0i#
1j#
1k#
0l#
1m#
1n#
1p#
0q#
1r#
1t#
1u#
1x#
1y#
1{#
1|#
1}#
1!$
0"$
1#$
1$$
0%$
1&$
1'$
1)$
1*$
1,$
0-$
1.$
10$
01$
12$
04$
15$
06$
18$
19$
0:$
1;$
1D$
1E$
1F$
1G$
1H$
1I$
0N$
0Q$
0S$
1T$
1V$
0Z$
1]$
1a$
0e$
1p$
1q$
1r$
1s$
1t$
1u$
0y$
0{$
0}$
1#%
1%%
0)%
1,%
10%
04%
#6000000
#10000000
b010000001010010101 !
b10010011 "
b010000001010010101 #
b10010011 $
0-
0.
0/
00
01
02
15
06
07
18
09
0:
1;
1<
1>
1A
0B
1C
1D
1E
1F
1G
1H
1K
1L
1M
1N
1O
1P
0Q
1R
1S
0T
0U
1V
0W
0X
1Y
1Z
1]
1`
1b
1d
1f
1h
1k
1m
1p
0q
0r
0s
0t
0u
0v
0w
1z
1{
1|
1}
1!"
1""
1-"
1."
1/"
10"
11"
12"
03"
14"
15"
06"
07"
18"
09"
0:"
1;"
1<"
1="
1>"
1?"
1@"
1A"
1B"
1C"
0D"
1E"
1F"
1G"
1I"
1J"
0K"
1L"
0M"
1N"
1P"
0Q"
1R"
0T"
1U"
0V"
0W"
1X"
1Y"
0Z"
1["
1\"
0]"
0_"
1`"
0a"
0c"
0d"
0g"
0h"
0j"
1k"
0l"
0m"
1n"
1o"
0p"
1q"
0r"
1s"
1u"
0v"
1x"
0y"
1z"
1|"
0}"
1!#
0##
0$#
0%#
0'#
0(#
0)#
0*#
1+#
1,#
1.#
0/#
10#
12#
13#
16#
17#
19#
1:#
1;#
1<#
0=#
1>#
1?#
0@#
1A#
1B#
1D#
1E#
0F#
1G#
0H#
1I#
1K#
0L#
1M#
0O#
1P#
0Q#
0R#
1S#
1T#
0U#
1V#
1W#
1X#
1Z#
0[#
1\#
1^#
1_#
1b#
1c#
1e#
1f#
1g#
1h#
0i#
1j#
1k#
0l#
1m#
1n#
1p#
0q#
1r#
1t#
1u#
1x#
1y#
1{#
1|#
1}#
1!$
0"$
1#$
1$$
0%$
1&$
1'$
1)$
1*$
0+$
1,$
0-$
1.$
10$
01$
12$
04$
15$
06$
07$
18$
19$
0:$
1;$
0D$
0E$
0F$
0G$
0H$
0I$
1N$
1Q$
1S$
0T$
0V$
1Z$
0]$
0a$
1e$
0p$
0q$
0r$
0s$
0t$
0u$
1y$
1{$
1}$
0#%
0%%
1)%
0,%
00%
14%
#11000000
#15000000
b011111111010010101 !
b10010111 "
b011111111010010101 #
b10010111 $
1-
1.
1/
10
11
12
15
06
07
18
09
1:
0C
0D
0E
0F
0G
0H
0K
0L
0M
0N
0O
0P
1S
0T
0U
1V
0W
1X
0]
0`
0b
0d
0f
0h
0k
1r
1s
1t
1u
1v
1w
0z
0{
0|
0}
0!"
0""
0-"
0."
0/"
00"
01"
02"
15"
06"
07"
18"
09"
1:"
0>"
0?"
0@"
0A"
0B"
0C"
0s"
0u"
1v"
0x"
1y"
0z"
0|"
1}"
0!#
1##
1%#
1'#
1)#
1*#
0+#
0,#
0.#
0/#
00#
02#
03#
06#
07#
09#
0:#
0;#
0<#
0=#
0>#
0?#
0@#
0A#
0B#
0D#
1E#
0F#
0G#
1H#
0I#
0K#
1L#
0M#
1O#
0P#
1Q#
0R#
1S#
0T#
1U#
1V#
0W#
0X#
0Z#
0[#
0\#
0^#
0_#
0b#
0c#
0e#
0f#
0g#
0h#
0i#
0j#
0k#
0l#
0m#
0n#
0p#
0q#
0r#
0t#
0u#
0x#
0y#
0{#
0|#
0}#
0!$
0"$
0#$
0$$
0%$
0&$
0'$
0)$
1*$
0+$
0,$
1-$
0.$
00$
11$
02$
14$
05$
16$
07$
18$
09$
1:$
1;$
1D$
1E$
1F$
1G$
1H$
1I$
0N$
0Q$
0S$
1T$
1V$
0Z$
1]$
1a$
0e$
1p$
1q$
1r$
1s$
1t$
1u$
0y$
0{$
0}$
1#%
1%%
0)%
1,%
10%
04%
#16000000
#20000000
b100000001010010101 !
b00100101 "
b100000001010010101 #
b00100101 $
0-
0.
0/
00
01
02
05
17
08
1:
0;
1<
1=
0>
1@
0A
1C
1D
1E
1F
1G
1H
0R
0Y
1Z
1]
1`
1b
1d
1f
1h
1l
0m
1o
0p
0r
0s
0t
0u
0v
0w
1z
1{
1|
1}
1!"
1""
04"
0;"
1<"
0="
0E"
0F"
0G"
0I"
1J"
0L"
1M"
0N"
0P"
1Q"
0R"
1T"
0U"
1V"
1X"
0Y"
1Z"
1["
0\"
0`"
0k"
0n"
0o"
0q"
0D$
0E$
0F$
0G$
0H$
0I$
1N$
1Q$
1S$
0T$
0V$
1Z$
0]$
0a$
1e$
0p$
0q$
0r$
0s$
0t$
0u$
1y$
1{$
1}$
0#%
0%%
1)%
0,%
00%
14%
#21000000
#25000000
b100010000010010101 !
b00000000 "
b100010000010010101 #
b00000000 $
1/
03
07
0:
0<
0E
1I
0]
0`
0b
0d
0f
0h
1t
0x
0|
1#"
1F$
0J$
0N$
0Q$
0S$
1T$
0Z$
1\$
0^$
0e$
1g$
1r$
0v$
0y$
0{$
0}$
1#%
0)%
1+%
0-%
04%
16%
#26000000
#30000000
b110000001010010101 !
b01010100 "
b110000001010010101 #
b01010100 $
0/
13
16
18
1:
1>
1?
0@
1E
0I
1Y
0Z
1]
1`
1b
1d
1f
1h
1m
1n
0o
0t
1x
1|
0#"
1;"
0<"
1="
1E"
1F"
1I"
0J"
1K"
1U"
1W"
0X"
1Y"
0["
1\"
1`"
1k"
1n"
1o"
1q"
0F$
1J$
1N$
1Q$
1S$
0T$
1Z$
0\$
1^$
1e$
0g$
0r$
1v$
1y$
1{$
1}$
0#%
1)%
0+%
1-%
14%
06%
#31000000
#35000000
b110010000010010101 !
b00000000 "
b110010000010010101 #
b00000000 $
1/
03
06
08
0:
0E
1I
0]
0`
0b
0d
0f
0h
1t
0x
0|
1#"
1F$
0J$
0N$
0Q$
0S$
1T$
0Z$
1\$
0^$
0e$
1g$
1r$
0v$
0y$
0{$
0}$
1#%
0)%
1+%
0-%
04%
16%
