Exp5_PriorityEncoder/testbench.vcd
$date
  Sun Jan 29 18:07:26 2017
$end
$version
  GHDL v0
$end
$timescale
  1 fs
$end
$var reg 8 ! input_vector[7:0] $end
$var reg 4 " output_vector[3:0] $end
$scope module dut_instance $end
$var reg 8 # input_vector[7:0] $end
$var reg 4 $ output_vector[3:0] $end
$scope module add_instance $end
$var reg 1 % x7 $end
$var reg 1 & x6 $end
$var reg 1 ' x5 $end
$var reg 1 ( x4 $end
$var reg 1 ) x3 $end
$var reg 1 * x2 $end
$var reg 1 + x1 $end
$var reg 1 , x0 $end
$var reg 1 - s2 $end
$var reg 1 . s1 $end
$var reg 1 / s0 $end
$var reg 1 0 n $end
$upscope $end
$upscope $end
$enddefinitions $end
#0
b00000000 !
b1000 "
b00000000 #
b1000 $
0%
0&
0'
0(
0)
0*
0+
0,
0-
0.
0/
10
#1000000
#5000000
b00000001 !
b0000 "
b00000001 #
b0000 $
1,
00
#6000000
#10000000
b00000010 !
b0001 "
b00000010 #
b0001 $
1+
0,
1/
#11000000
#15000000
b00000100 !
b0010 "
b00000100 #
b0010 $
1*
0+
1.
0/
#16000000
#20000000
b00001000 !
b0011 "
b00001000 #
b0011 $
1)
0*
1/
#21000000
#25000000
b00010000 !
b0100 "
b00010000 #
b0100 $
1(
0)
1-
0.
0/
#26000000
#30000000
b00100000 !
b0101 "
b00100000 #
b0101 $
1'
0(
1/
#31000000
#35000000
b01000000 !
b0110 "
b01000000 #
b0110 $
1&
0'
1.
0/
#36000000
#40000000
b10000000 !
b0111 "
b10000000 #
b0111 $
1%
0&
1/
#41000000
#45000000
b00000000 !
b1000 "
b00000000 #
b1000 $
0%
0-
0.
0/
10
#46000000
#50000000
b10011100 !
b0010 "
b10011100 #
b0010 $
1%
1(
1)
1*
1.
00
#51000000
#55000000
b10011101 !
b0000 "
b10011101 #
b0000 $
1,
0.
#56000000
#60000000
b10011110 !
b0001 "
b10011110 #
b0001 $
1+
0,
1/
#61000000
#65000000
b10011111 !
b0000 "
b10011111 #
b0000 $
1,
0/
#66000000
#70000000
b10100000 !
b0101 "
b10100000 #
b0101 $
1'
0(
0)
0*
0+
0,
1-
1/
